{
  "03": {
    "project": "ALFA_OPCIONAL",
    "visit_codes": { "04" : "V1S1" }
  },
  "04": {
    "project": "ALFA_PLUS",
    "visit_codes":
    {
      "05" : "V1S1",
      "06" : "V1S2",
      "07" : "V1S3",
      "11" : "V1S1",
      "12" : "V1S2",
      "13" : "V1S3",
      "21" : "V2S1",
      "22" : "V2S2",
      "23" : "V2S3",
      "31" : "V3S1",
      "32" : "V3S2",
      "33" : "V3S3"
    }
  },
  "06": {
    "project": "ALFA_PLUS",
    "visit_codes":
    {
      "09" : "VX",
      "11" : "VX"
    }
  },
  "07": {
    "project": "EPAD",
    "visit_codes":
    {
      "10" : "V1",
      "11" : "V2S1",
      "12" : "V3",
      "13" : "V4"
    }
  },
  "09": {
    "project": "NPAD",
    "visit_codes": { "14" : "V1S1" }
  },
  "10": {
    "project": "CAPI_I",
    "visit_codes":
    {
      "16" : "V1S1",
      "17" : "V2S1",
      "18" : "V3S1",
      "19" : "V4S1",
      "20" : "V5S1",
      "21" : "V6S1",
      "22" : "V7S1",
      "23" : "V8S1",
      "24" : "V9S1",
      "25" : "V10S1",
      "26" : "V11S1",
      "27" : "V12S1",
      "28" : "V13S1",
      "29" : "V14S1",
      "30" : "V15S1",
      "31" : "V16S1",
      "32" : "V17S1",
      "33" : "V18S1",
      "34" : "V19S1",
      "35" : "V20S1",
      "36" : "V21S1",
      "37" : "V22S1",
      "38" : "V23S1",
      "39" : "V24S1",
      "40" : "V25S1",
      "41" : "V26S1",
      "42" : "V27S1",
      "43" : "V28S1",
      "44" : "V29S1",
      "45" : "V30S1",
      "46" : "V31S1",
      "47" : "V32S1",
      "48" : "V33S1",
      "49" : "V34S1",
      "50" : "V35S1",
      "51" : "V36S1",
      "52" : "V37S1",
      "53" : "V38S1",
      "54" : "V39S1",
      "55" : "V40S1",
      "56" : "V41S1"
    }
  },
  "11": {
    "project": "CAPI_II",
    "visit_codes":
    {
      "57" : "V1S1",
      "58" : "V2S1",
      "59" : "V3S1",
      "60" : "V4S1",
      "61" : "V5S1",
      "62" : "V6S1",
      "63" : "V7S1",
      "64" : "V8S1",
      "65" : "V9S1",
      "66" : "V10S1",
      "67" : "V11S1",
      "68" : "V12S1",
      "69" : "V13S1",
      "70" : "V14S1",
      "71" : "V15S1",
      "72" : "V16S1",
      "73" : "V17S1",
      "74" : "V18S1",
      "75" : "V19S1",
      "76" : "V20S1",
      "77" : "V21S1",
      "78" : "V22S1",
      "79" : "V23S1",
      "80" : "V24S1",
      "81" : "V25S1",
      "82" : "V26S1",
      "83" : "V27S1",
      "84" : "V28S1",
      "85" : "V29S1",
      "86" : "V30S1",
      "87" : "V31S1",
      "88" : "V32S1",
      "89" : "V33S1",
      "90" : "V34S1",
      "91" : "V35S1",
      "92" : "V36S1"
    }
  },
  "12": {
    "project": "EARLY",
    "visit_codes":
    {
      "93" : "V1S1",
      "94" : "V2S1",
      "95" : "V3S1",
      "96" : "V4S1",
      "97" : "V5S1",
      "98" : "V6S1",
      "99" : "V7S1",
      "100" : "V8S1",
      "101" : "V9S1",
      "102" : "V10S1",
      "103" : "V11S1",
      "104" : "V12S1",
      "105" : "V13S1",
      "106" : "V14S1",
      "107" : "V15S1",
      "108" : "V16S1",
      "109" : "V17S1",
      "110" : "V18S1",
      "111" : "V19S1",
      "112" : "V20S1",
      "113" : "V21S1",
      "114" : "V22S1",
      "115" : "V23S1",
      "116" : "V24S1",
      "117" : "V25S1",
      "118" : "V26S1",
      "119" : "V27S1",
      "120" : "V28S1",
      "121" : "V29S1",
      "122" : "V30S1",
      "123" : "V31S1",
      "124" : "V32S1",
      "125" : "V33S1",
      "126" : "V34S1"
    }
  },
  "13": {
    "project": "ALFA_COGNICIO",
    "visit_codes":
    {
      "127" : "V1S1",
      "11" : "V1S1",
      "12" : "V1S2",
      "13" : "V1S3",
      "14" : "V1S4"
    }
  },
  "14": {
    "project": "CLIN_PREV_DEM",
    "visit_codes":
    {
      "128" : "V1",
      "129" : "V2S1",
      "130" : "FU1S1",
      "131" : "FU2S1",
      "132" : "FU3S1",
      "133" : "V3S1"
    }
  },
  "16": {
    "project": "ARACLON",
    "visit_codes":
    {
      "135" : "V1",
      "136" : "V2",
      "137" : "V3S1",
      "138" : "V4S1",
      "139" : "V5S1",
      "140" : "V6S1",
      "141" : "V7S1",
      "142" : "V8S1",
      "143" : "V9S1",
      "144" : "V10S1",
      "145" : "V11S1",
      "146" : "V12S1",
      "147" : "V13S1",
      "148" : "V14S1",
      "149" : "V15S1",
      "150" : "V16S1",
      "151" : "V17S1",
      "152" : "V18S1",
      "153" : "V19S1",
      "154" : "V20S1",
      "155" : "V21",
      "156" : "V22S1",
      "157" : "V23S1",
      "158" : "V24S1",
      "159" : "V25"
    }
  },
  "17": {
    "project": "AMYPAD01_MRI",
    "visit_codes":
    {
      "160" : "V1",
      "11" : "V1"
    }
  },
  "18": {
    "project": "T1rho_S1",
    "visit_codes":
    {
      "169" : "V1"
    }
  },
  "20": {
    "project": "PENSA",
    "visit_codes":
    {
      "172" : "V1",
      "176" : "V8",
      "11" : "V1",
      "21" : "V2",
      "61" : "V6",
      "71" : "V7",
      "81" : "V8",
      "101" : "V10"
    }
  },
  "21": {
    "project": "Comparison_ASL",
    "visit_codes":
    {
      "178" : "V1"
    }
  },
  "22": {
    "project": "MEMORIA_MUSICA",
    "visit_codes":
    {
      "179" : "V1"
    }
  },
  "24": {
    "project": "AMYPAD02_MRI",
    "visit_codes":
    {
      "181" : "V1",
      "11" : "V1"
    }
  },
  "25": {
    "project": "BETA_AARC",
    "visit_codes":
    {
      "183" : "V1",
      "11" : "V1S1",
      "12" : "V1S2",
      "13" : "V1S3",
      "21" : "V2S1",
      "22" : "V2S2",
      "23" : "V2S3",
      "24" : "V2S4",
      "312" : "V3S1"
    }
  },
  "27": {
    "project": "AHEAD_A3-45",
    "visit_codes":
    {
      "11" : "V1S1",
      "12" : "V1S2",
      "21" : "V2S1",
      "31" : "V3S1",
      "32" : "V3S2",
      "41" : "V4S1",
      "42" : "V4S2",
      "51" : "V5S1",
      "61" : "V6S1",
      "71" : "V7S1",
      "81" : "V8S1",
      "82" : "V8S2",
      "91" : "V9S1",
      "92" : "V9S2",
      "101" : "V10S1",
      "102" : "V10S2",
      "111" : "V11S1",
      "121" : "V12S1",
      "122" : "V12S2",
      "131" : "V13S1",
      "141" : "V14S1",
      "151" : "V15S1",
      "152" : "V15S2",
      "161" : "V16S1",
      "171" : "V17S1",
      "181" : "V18S1",
      "182" : "V18S2",
      "191" : "V19S1",
      "201" : "V20S1",
      "211" : "V21S1",
      "221" : "V22S1",
      "231" : "V23S1",
      "241" : "V24S1",
      "242" : "V24S2",
      "251" : "V25S1",
      "261" : "V26S1",
      "271" : "V27S1",
      "281" : "V28S1",
      "291" : "V29S1",
      "301" : "V30S1",
      "302" : "V30S2",
      "303" : "V30S3",
      "311" : "V31S1",
      "321" : "V32S1",
      "331" : "V33S1",
      "341" : "V34S1",
      "351" : "V35S1",
      "361" : "V36S1",
      "362" : "V36S2",
      "371" : "V37S1",
      "381" : "V38S1",
      "391" : "V39S1",
      "401" : "V40S1",
      "411" : "V41S1",
      "421" : "V42S1",
      "422" : "V42S2",
      "431" : "V43S1",
      "441" : "V44S1",
      "451" : "V45S1",
      "461" : "V46S1",
      "471" : "V47S1",
      "481" : "V48S1",
      "491" : "V49S1",
      "501" : "V50S1",
      "511" : "V51S1",
      "521" : "V52S1",
      "531" : "V53S1",
      "541" : "V54S1",
      "542" : "V54S2",
      "543" : "V54S3",
      "551" : "V55S1",
      "561" : "V56S1",
      "571" : "V57S1",
      "581" : "V58S1",
      "591" : "V59S1",
      "601" : "V60S1",
      "602" : "V60S2",
      "603" : "V60S3",
      "611" : "V61S1",
      "621" : "V62S1",
      "631" : "V63S1",
      "641" : "V64S1",
      "651" : "V65S1",
      "661" : "V66S1",
      "662" : "V66S2",
      "671" : "V67S1",
      "681" : "V68S1",
      "691" : "V69S1",
      "701" : "V70S1",
      "711" : "V71S1",
      "721" : "V72S1",
      "722" : "V72S2",
      "731" : "V73S1",
      "741" : "V74S1",
      "751" : "V75S1",
      "761" : "V76S1",
      "771" : "V77S1",
      "781" : "V78S1",
      "782" : "V78S2",
      "791" : "V79S1",
      "801" : "V80S1",
      "811" : "V81S1",
      "821" : "V82S1",
      "831" : "V83S1",
      "841" : "V84S1",
      "842" : "V84S2",
      "843" : "V84S3"
    }
  }
}
