["segstats.touch",
 "rh.avgcurv.touch",
 "rh.smoothwm1.touch",
 "lh.smoothwm2.touch",
 "lh.sphreg.touch",
 "rh.inflate2.touch",
 "rh.pctsurfcon.touch",
 "rh.aparc.touch",
 "rh.inflate.H.K.touch",
 "skull.lta.touch",
 "rh.smoothwm2.touch",
 "rh.cortex.touch",
 "rh.sphmorph.touch",
 "wmsegment.touch",
 "talairach.touch",
 "skull_strip.touch",
 "lh.aparc.touch",
 "rh.aparcstats.touch",
 "lh.inflate2.touch",
 "lh.tessellate.touch",
 "rh.white.preaparc.touch",
 "lh.sphmorph.touch",
 "conform.touch",
 "rh.aparcstats2.touch",
 "lh.topofix.touch",
 "wmaparc.stats.touch",
 "lh.pctsurfcon.touch",
 "lh.curvstats.touch",
 "rh.tessellate.touch",
 "rh.qsphere.touch",
 "lh.aparcstats.touch",
 "rh.aparc2.touch",
 "lh.qsphere.touch",
 "rh.curvstats.touch",
 "inorm1.touch",
 "em_register.touch",
 "rh.inflate1.touch",
 "inorm2.touch",
 "ca_register.touch",
 "rh.autodet.gw.stats.touch",
 "rh.white.H.K.touch",
 "ca_normalize.touch",
 "rh.jacobian_white.touch",
 "nu.touch",
 "lh.jacobian_white.touch",
 "lh.avgcurv.touch",
 "asegmerge.touch",
 "fill.touch",
 "lh.white.preaparc.touch",
 "lh.cortex.touch",
 "ca_label.touch",
 "lh.aparcstats3.touch",
 "lh.autodet.gw.stats.touch",
 "lh.white.touch",
 "lh.white.H.K.touch",
 "lh.aparc2.touch",
 "apas2aseg.touch",
 "lh.inflate1.touch",
 "rh.sphreg.touch",
 "relabelhypos.touch",
 "lh.smoothwm1.touch",
 "lh.aparcstats2.touch",
 "rh.aparcstats3.touch",
 "rh.white.touch",
 "lh.cortex+hipamyg.touch",
 "rh.cortex+hipamyg.touch",
 "rh.topofix.touch",
 "lh.inflate.H.K.touch",
 "cortical_ribbon.touch",
 "aparc.annot.DKTatlas.ctab",
 "lh.aparc.annot",
 "lh.BA2_exvivo.label",
 "lh.MT_exvivo.label",
 "BA_exvivo.thresh.ctab",
 "rh.BA3b_exvivo.thresh.label",
 "rh.FG3.mpm.vpnl.label",
 "rh.FG1.mpm.vpnl.label",
 "lh.BA_exvivo.annot",
 "lh.BA4p_exvivo.thresh.label",
 "BA_exvivo.ctab",
 "lh.BA45_exvivo.label",
 "lh.FG1.mpm.vpnl.label",
 "rh.hOc2.mpm.vpnl.label",
 "rh.MT_exvivo.thresh.label",
 "lh.BA6_exvivo.label",
 "rh.BA45_exvivo.thresh.label",
 "rh.BA4a_exvivo.label",
 "rh.BA2_exvivo.label",
 "lh.aparc.a2009s.annot",
 "rh.V2_exvivo.label",
 "rh.aparc.annot",
 "rh.BA_exvivo.thresh.annot",
 "lh.cortex+hipamyg.label",
 "rh.BA45_exvivo.label",
 "rh.hOc4v.mpm.vpnl.label",
 "lh.entorhinal_exvivo.thresh.label",
 "lh.mpm.vpnl.annot",
 "rh.perirhinal_exvivo.thresh.label",
 "rh.V1_exvivo.thresh.label",
 "rh.MT_exvivo.label",
 "lh.BA4a_exvivo.label",
 "rh.BA3a_exvivo.label",
 "lh.hOc3v.mpm.vpnl.label",
 "rh.cortex+hipamyg.label",
 "rh.hOc3v.mpm.vpnl.label",
 "rh.BA44_exvivo.label",
 "rh.BA_exvivo.annot",
 "rh.FG2.mpm.vpnl.label",
 "lh.BA3b_exvivo.label",
 "rh.entorhinal_exvivo.thresh.label",
 "rh.BA1_exvivo.thresh.label",
 "lh.BA4a_exvivo.thresh.label",
 "lh.aparc.DKTatlas.annot",
 "rh.cortex.label",
 "lh.FG3.mpm.vpnl.label",
 "lh.BA44_exvivo.thresh.label",
 "lh.hOc2.mpm.vpnl.label",
 "rh.aparc.DKTatlas.annot",
 "rh.BA3a_exvivo.thresh.label",
 "lh.BA3a_exvivo.label",
 "rh.entorhinal_exvivo.label",
 "rh.V1_exvivo.label",
 "rh.BA3b_exvivo.label",
 "rh.BA44_exvivo.thresh.label",
 "lh.FG2.mpm.vpnl.label",
 "rh.FG4.mpm.vpnl.label",
 "lh.BA45_exvivo.thresh.label",
 "lh.V2_exvivo.thresh.label",
 "lh.perirhinal_exvivo.thresh.label",
 "rh.BA4a_exvivo.thresh.label",
 "rh.BA4p_exvivo.thresh.label",
 "aparc.annot.a2009s.ctab",
 "lh.entorhinal_exvivo.label",
 "lh.BA2_exvivo.thresh.label",
 "rh.hOc1.mpm.vpnl.label",
 "lh.BA1_exvivo.thresh.label",
 "lh.V1_exvivo.label",
 "lh.MT_exvivo.thresh.label",
 "lh.V1_exvivo.thresh.label",
 "lh.BA4p_exvivo.label",
 "lh.hOc1.mpm.vpnl.label",
 "lh.hOc4v.mpm.vpnl.label",
 "rh.aparc.a2009s.annot",
 "lh.perirhinal_exvivo.label",
 "lh.cortex.label",
 "lh.BA_exvivo.thresh.annot",
 "aparc.annot.ctab",
 "rh.BA4p_exvivo.label",
 "lh.BA3b_exvivo.thresh.label",
 "lh.BA44_exvivo.label",
 "lh.FG4.mpm.vpnl.label",
 "rh.BA6_exvivo.thresh.label",
 "rh.mpm.vpnl.annot",
 "rh.BA6_exvivo.label",
 "rh.BA2_exvivo.thresh.label",
 "rh.BA1_exvivo.label",
 "lh.BA3a_exvivo.thresh.label",
 "rh.V2_exvivo.thresh.label",
 "lh.BA6_exvivo.thresh.label",
 "rh.perirhinal_exvivo.label",
 "lh.V2_exvivo.label",
 "lh.BA1_exvivo.label",
 "norm.mgz",
 "aseg.auto.mgz",
 "aparc.a2009s+aseg.mgz",
 "surface.defects.mgz",
 "orig_nu.mgz",
 "nu.mgz",
 "rawavg.mgz",
 "wm.asegedit.mgz",
 "brain.mgz",
 "ctrl_pts.mgz",
 "orig.mgz",
 "aseg.mgz",
 "wm.seg.mgz",
 "T1.mgz",
 "mri_nu_correct.mni.log.bak",
 "brainmask.mgz",
 "aseg.presurf.hypos.mgz",
 "aseg.auto_noCCseg.label_intensities.txt",
 "talairach.log",
 "mri_nu_correct.mni.log",
 "aparc+aseg.mgz",
 "filled.mgz",
 "brain.finalsurfs.mgz",
 "brainmask.auto.mgz",
 "talairach.label_intensities.txt",
 "aparc.DKTatlas+aseg.mgz",
 "talairach_with_skull.log",
 "ribbon.mgz",
 "wm.mgz",
 "aseg.presurf.mgz",
 "segment.dat",
 "antsdn.brain.mgz",
 "lh.ribbon.mgz",
 "aseg.auto_noCCseg.mgz",
 "rh.ribbon.mgz",
 "wmparc.mgz",
 "001.mgz",
 "talairach.xfm",
 "talairach_with_skull.lta",
 "talairach_avi.log",
 "talairach_avi_QA.log",
 "talsrcimg_to_711-2C_as_mni_average_305_t4_vox2vox.txt",
 "talairach.auto.xfm.lta",
 "talairach.auto.xfm",
 "talairach.lta",
 "cc_up.lta",
 "talairach.xfm.lta",
 "talairach.m3z",
 "rh.pial.T1",
 "lh.area",
 "lh.white.preaparc.K",
 "rh.smoothwm",
 "rh.pial",
 "rh.inflated.nofix",
 "rh.sphere.reg",
 "rh.smoothwm.FI.crv",
 "lh.defect_labels",
 "lh.inflated.nofix",
 "lh.smoothwm.H.crv",
 "lh.orig.nofix",
 "rh.white.preaparc.K",
 "rh.smoothwm.S.crv",
 "lh.smoothwm.K1.crv",
 "rh.defects.pointset",
 "rh.area.mid",
 "rh.smoothwm.K2.crv",
 "rh.white.preaparc",
 "rh.thickness",
 "lh.smoothwm.BE.crv",
 "autodet.gw.stats.rh.dat",
 "lh.defect_borders",
 "rh.smoothwm.C.crv",
 "lh.smoothwm.FI.crv",
 "lh.inflated.H",
 "lh.smoothwm.K2.crv",
 "rh.smoothwm.nofix",
 "lh.white.preaparc.H",
 "lh.white.K",
 "rh.jacobian_white",
 "lh.orig.nofix.predec",
 "rh.defect_labels",
 "lh.sphere",
 "lh.curv.pial",
 "rh.white.K",
 "lh.white",
 "rh.white.preaparc.H",
 "rh.qsphere.nofix",
 "rh.smoothwm.H.crv",
 "lh.jacobian_white",
 "rh.smoothwm.K1.crv",
 "lh.sphere.reg",
 "lh.orig",
 "lh.white.H",
 "rh.orig",
 "lh.area.pial",
 "lh.qsphere.nofix",
 "lh.inflated.K",
 "rh.sphere",
 "rh.avg_curv",
 "lh.defect_chull",
 "rh.defect_chull",
 "lh.curv",
 "rh.w-g.pct.mgh",
 "rh.white.H",
 "rh.inflated",
 "lh.fsaverage.sphere.reg",
 "rh.fsaverage.sphere.reg",
 "rh.inflated.K",
 "lh.smoothwm.nofix",
 "autodet.gw.stats.lh.dat",
 "lh.inflated",
 "rh.curv.pial",
 "lh.orig.premesh",
 "rh.orig.nofix.predec",
 "lh.smoothwm.S.crv",
 "rh.area",
 "lh.smoothwm.C.crv",
 "lh.area.mid",
 "rh.defect_borders",
 "lh.smoothwm",
 "rh.curv",
 "lh.avg_curv",
 "lh.defects.pointset",
 "rh.sulc",
 "rh.white",
 "rh.orig.nofix",
 "lh.w-g.pct.mgh",
 "lh.sulc",
 "lh.smoothwm.K.crv",
 "lh.thickness",
 "rh.smoothwm.BE.crv",
 "rh.smoothwm.K.crv",
 "rh.volume",
 "lh.white.preaparc",
 "lh.volume",
 "lh.pial",
 "rh.orig.premesh",
 "rh.inflated.H",
 "rh.area.pial",
 "lh.pial.T1",
 "lh.BA_exvivo.thresh.stats",
 "rh.aparc.a2009s.stats",
 "rh.BA_exvivo.thresh.stats",
 "lh.BA_exvivo.stats",
 "rh.aparc.DKTatlas.stats",
 "rh.BA_exvivo.stats",
 "aseg.stats",
 "rh.aparc.pial.stats",
 "lh.aparc.stats",
 "brainvol.stats",
 "rh.aparc.stats",
 "lh.aparc.a2009s.stats",
 "lh.w-g.pct.stats",
 "rh.curv.stats",
 "lh.aparc.DKTatlas.stats",
 "lh.aparc.pial.stats",
 "wmparc.stats",
 "lh.curv.stats",
 "rh.w-g.pct.stats",
 "recon-config.yaml",
 "ponscc.cut.log",
 "recon-all.log",
 "defect2seg.log",
 "unknown-args.txt",
 "patchdir.txt",
 "recon-all.local-copy",
 "recon-all.done",
 "recon-all.env",
 "pctsurfcon.log.old",
 "recon-all-status.log",
 "pctsurfcon.log",
 "build-stamp.txt",
 "lastcall.build-stamp.txt",
 "recon-all.cmd"]
